{
  "Total" : {
    "transaction" : "Total",
    "sampleCount" : 100,
    "errorCount" : 0,
    "errorPct" : 0.0,
    "meanResTime" : 10960.820000000002,
    "minResTime" : 1609.0,
    "maxResTime" : 20300.0,
    "pct1ResTime" : 18761.4,
    "pct2ResTime" : 19986.749999999996,
    "pct3ResTime" : 20299.21,
    "throughput" : 4.673770798280052,
    "receivedKBytesPerSec" : 66.11742557020004,
    "sentKBytesPerSec" : 1.0589011964853243
  },
  " View Pages" : {
    "transaction" : " View Pages",
    "sampleCount" : 100,
    "errorCount" : 0,
    "errorPct" : 0.0,
    "meanResTime" : 10960.820000000002,
    "minResTime" : 1609.0,
    "maxResTime" : 20300.0,
    "pct1ResTime" : 18761.4,
    "pct2ResTime" : 19986.749999999996,
    "pct3ResTime" : 20299.21,
    "throughput" : 4.673770798280052,
    "receivedKBytesPerSec" : 66.11742557020004,
    "sentKBytesPerSec" : 1.0589011964853243
  }
}