{
  "Debug Sampler" : {
    "transaction" : "Debug Sampler",
    "sampleCount" : 100,
    "errorCount" : 0,
    "errorPct" : 0.0,
    "meanResTime" : 0.04000000000000001,
    "minResTime" : 0.0,
    "maxResTime" : 1.0,
    "pct1ResTime" : 0.0,
    "pct2ResTime" : 0.0,
    "pct3ResTime" : 1.0,
    "throughput" : 4.589471751801368,
    "receivedKBytesPerSec" : 5.367889187204552,
    "sentKBytesPerSec" : 0.0
  },
  "Total" : {
    "transaction" : "Total",
    "sampleCount" : 200,
    "errorCount" : 24,
    "errorPct" : 12.0,
    "meanResTime" : 214.1949999999999,
    "minResTime" : 0.0,
    "maxResTime" : 513.0,
    "pct1ResTime" : 454.0,
    "pct2ResTime" : 467.6499999999999,
    "pct3ResTime" : 506.98,
    "throughput" : 9.02567805406381,
    "receivedKBytesPerSec" : 39.81011524662665,
    "sentKBytesPerSec" : 1.3816162450922875
  },
  "Delete Page" : {
    "transaction" : "Delete Page",
    "sampleCount" : 50,
    "errorCount" : 24,
    "errorPct" : 48.0,
    "meanResTime" : 439.50000000000006,
    "minResTime" : 366.0,
    "maxResTime" : 494.0,
    "pct1ResTime" : 460.9,
    "pct2ResTime" : 478.3499999999999,
    "pct3ResTime" : 494.0,
    "throughput" : 2.294841196989168,
    "receivedKBytesPerSec" : 2.6727280355011933,
    "sentKBytesPerSec" : 0.8852170632917202
  },
  " View Pages" : {
    "transaction" : " View Pages",
    "sampleCount" : 50,
    "errorCount" : 0,
    "errorPct" : 0.0,
    "meanResTime" : 417.20000000000016,
    "minResTime" : 368.0,
    "maxResTime" : 513.0,
    "pct1ResTime" : 478.0,
    "pct2ResTime" : 505.9,
    "pct3ResTime" : 513.0,
    "throughput" : 2.2954733265999447,
    "receivedKBytesPerSec" : 32.456064999196585,
    "sentKBytesPerSec" : 0.5200681755578
  }
}