{
  "Debug Sampler" : {
    "transaction" : "Debug Sampler",
    "sampleCount" : 200,
    "errorCount" : 0,
    "errorPct" : 0.0,
    "meanResTime" : 0.08499999999999996,
    "minResTime" : 0.0,
    "maxResTime" : 1.0,
    "pct1ResTime" : 0.0,
    "pct2ResTime" : 1.0,
    "pct3ResTime" : 1.0,
    "throughput" : 4.187341666143249,
    "receivedKBytesPerSec" : 4.898678599281871,
    "sentKBytesPerSec" : 0.0
  },
  "Total" : {
    "transaction" : "Total",
    "sampleCount" : 400,
    "errorCount" : 43,
    "errorPct" : 10.75,
    "meanResTime" : 213.47750000000016,
    "minResTime" : 0.0,
    "maxResTime" : 913.0,
    "pct1ResTime" : 445.0,
    "pct2ResTime" : 469.74999999999994,
    "pct3ResTime" : 751.2600000000016,
    "throughput" : 8.296861712057414,
    "receivedKBytesPerSec" : 36.68438365336749,
    "sentKBytesPerSec" : 1.2700518294580077
  },
  "Delete Page" : {
    "transaction" : "Delete Page",
    "sampleCount" : 100,
    "errorCount" : 43,
    "errorPct" : 43.0,
    "meanResTime" : 446.29,
    "minResTime" : 362.0,
    "maxResTime" : 913.0,
    "pct1ResTime" : 479.0,
    "pct2ResTime" : 539.2499999999998,
    "pct3ResTime" : 911.8099999999994,
    "throughput" : 2.0936708330716245,
    "receivedKBytesPerSec" : 2.519867791229613,
    "sentKBytesPerSec" : 0.8076171670539958
  },
  " View Pages" : {
    "transaction" : " View Pages",
    "sampleCount" : 100,
    "errorCount" : 0,
    "errorPct" : 0.0,
    "meanResTime" : 407.4500000000001,
    "minResTime" : 345.0,
    "maxResTime" : 579.0,
    "pct1ResTime" : 445.6,
    "pct2ResTime" : 473.79999999999995,
    "pct3ResTime" : 578.1799999999996,
    "throughput" : 2.0924441840513905,
    "receivedKBytesPerSec" : 29.592575779173906,
    "sentKBytesPerSec" : 0.4740693854491432
  }
}