{
  "Total" : {
    "transaction" : "Total",
    "sampleCount" : 1,
    "errorCount" : 0,
    "errorPct" : 0.0,
    "meanResTime" : 432.0,
    "minResTime" : 432.0,
    "maxResTime" : 432.0,
    "pct1ResTime" : 432.0,
    "pct2ResTime" : 432.0,
    "pct3ResTime" : 432.0,
    "throughput" : 2.314814814814815,
    "receivedKBytesPerSec" : 132.62035228587962,
    "sentKBytesPerSec" : 0.9313512731481481
  },
  "HTTP Request_param_of_user" : {
    "transaction" : "HTTP Request_param_of_user",
    "sampleCount" : 1,
    "errorCount" : 0,
    "errorPct" : 0.0,
    "meanResTime" : 432.0,
    "minResTime" : 432.0,
    "maxResTime" : 432.0,
    "pct1ResTime" : 432.0,
    "pct2ResTime" : 432.0,
    "pct3ResTime" : 432.0,
    "throughput" : 2.314814814814815,
    "receivedKBytesPerSec" : 132.62035228587962,
    "sentKBytesPerSec" : 0.9313512731481481
  }
}