{
  "Debug Sampler" : {
    "transaction" : "Debug Sampler",
    "sampleCount" : 100,
    "errorCount" : 0,
    "errorPct" : 0.0,
    "meanResTime" : 0.12000000000000004,
    "minResTime" : 0.0,
    "maxResTime" : 2.0,
    "pct1ResTime" : 1.0,
    "pct2ResTime" : 1.0,
    "pct3ResTime" : 1.9899999999999949,
    "throughput" : 4.529190633633769,
    "receivedKBytesPerSec" : 11.747676666742153,
    "sentKBytesPerSec" : 0.0
  },
  "Delete User" : {
    "transaction" : "Delete User",
    "sampleCount" : 50,
    "errorCount" : 47,
    "errorPct" : 94.0,
    "meanResTime" : 9047.54,
    "minResTime" : 1170.0,
    "maxResTime" : 12184.0,
    "pct1ResTime" : 11197.3,
    "pct2ResTime" : 11587.199999999997,
    "pct3ResTime" : 12184.0,
    "throughput" : 2.265621459966469,
    "receivedKBytesPerSec" : 1.7939119919343878,
    "sentKBytesPerSec" : 0.8739457780144094
  },
  "Total" : {
    "transaction" : "Total",
    "sampleCount" : 200,
    "errorCount" : 47,
    "errorPct" : 23.5,
    "meanResTime" : 4401.055,
    "minResTime" : 0.0,
    "maxResTime" : 14063.0,
    "pct1ResTime" : 11197.300000000001,
    "pct2ResTime" : 12174.749999999998,
    "pct3ResTime" : 13827.81,
    "throughput" : 8.559079043094963,
    "receivedKBytesPerSec" : 135.3860746458681,
    "sentKBytesPerSec" : 1.686322457953524
  },
  "HTTP Request_param_of_user" : {
    "transaction" : "HTTP Request_param_of_user",
    "sampleCount" : 50,
    "errorCount" : 0,
    "errorPct" : 0.0,
    "meanResTime" : 8556.44,
    "minResTime" : 1284.0,
    "maxResTime" : 14063.0,
    "pct1ResTime" : 13529.8,
    "pct2ResTime" : 13817.55,
    "pct3ResTime" : 14063.0,
    "throughput" : 3.3485132601125103,
    "receivedKBytesPerSec" : 191.84299553810607,
    "sentKBytesPerSec" : 1.3472533819983927
  }
}