{
  "HTTP Request home_page-0" : {
    "transaction" : "HTTP Request home_page-0",
    "sampleCount" : 50,
    "errorCount" : 0,
    "errorPct" : 0.0,
    "meanResTime" : 4875.459999999999,
    "minResTime" : 18.0,
    "maxResTime" : 8805.0,
    "pct1ResTime" : 8698.2,
    "pct2ResTime" : 8707.7,
    "pct3ResTime" : 8805.0,
    "throughput" : 5.264266161297115,
    "receivedKBytesPerSec" : 3.1976304221941465,
    "sentKBytesPerSec" : 1.0898676037060435
  },
  "HTTP Request home_page-1" : {
    "transaction" : "HTTP Request home_page-1",
    "sampleCount" : 50,
    "errorCount" : 0,
    "errorPct" : 0.0,
    "meanResTime" : 6037.44,
    "minResTime" : 1861.0,
    "maxResTime" : 8882.0,
    "pct1ResTime" : 8479.3,
    "pct2ResTime" : 8786.699999999999,
    "pct3ResTime" : 8882.0,
    "throughput" : 3.0567952558537628,
    "receivedKBytesPerSec" : 51.596972530873636,
    "sentKBytesPerSec" : 0.6358372944305191
  },
  "Total" : {
    "transaction" : "Total",
    "sampleCount" : 150,
    "errorCount" : 0,
    "errorPct" : 0.0,
    "meanResTime" : 7276.933333333335,
    "minResTime" : 18.0,
    "maxResTime" : 15682.0,
    "pct1ResTime" : 12855.400000000001,
    "pct2ResTime" : 14663.949999999993,
    "pct3ResTime" : 15595.810000000001,
    "throughput" : 9.160305343511451,
    "receivedKBytesPerSec" : 106.7899570610687,
    "sentKBytesPerSec" : 2.5345896946564888
  },
  "HTTP Request home_page" : {
    "transaction" : "HTTP Request home_page",
    "sampleCount" : 50,
    "errorCount" : 0,
    "errorPct" : 0.0,
    "meanResTime" : 10917.9,
    "minResTime" : 7406.0,
    "maxResTime" : 15682.0,
    "pct1ResTime" : 15186.5,
    "pct2ResTime" : 15376.05,
    "pct3ResTime" : 15682.0,
    "throughput" : 3.0534351145038165,
    "receivedKBytesPerSec" : 53.39497853053435,
    "sentKBytesPerSec" : 1.2672948473282444
  }
}