{
  "Total" : {
    "transaction" : "Total",
    "sampleCount" : 50,
    "errorCount" : 0,
    "errorPct" : 0.0,
    "meanResTime" : 5131.100000000001,
    "minResTime" : 1337.0,
    "maxResTime" : 8910.0,
    "pct1ResTime" : 8484.3,
    "pct2ResTime" : 8754.3,
    "pct3ResTime" : 8910.0,
    "throughput" : 4.9465769687376335,
    "receivedKBytesPerSec" : 44.03129791996438,
    "sentKBytesPerSec" : 1.08689435348239
  },
  "HTTP Request_visit_login_page" : {
    "transaction" : "HTTP Request_visit_login_page",
    "sampleCount" : 50,
    "errorCount" : 0,
    "errorPct" : 0.0,
    "meanResTime" : 5131.100000000001,
    "minResTime" : 1337.0,
    "maxResTime" : 8910.0,
    "pct1ResTime" : 8484.3,
    "pct2ResTime" : 8754.3,
    "pct3ResTime" : 8910.0,
    "throughput" : 4.9465769687376335,
    "receivedKBytesPerSec" : 44.03129791996438,
    "sentKBytesPerSec" : 1.08689435348239
  }
}