{
  "Debug Sampler" : {
    "transaction" : "Debug Sampler",
    "sampleCount" : 100,
    "errorCount" : 0,
    "errorPct" : 0.0,
    "meanResTime" : 0.15000000000000005,
    "minResTime" : 0.0,
    "maxResTime" : 1.0,
    "pct1ResTime" : 1.0,
    "pct2ResTime" : 1.0,
    "pct3ResTime" : 1.0,
    "throughput" : 4.899318994659742,
    "receivedKBytesPerSec" : 9.081107843197294,
    "sentKBytesPerSec" : 0.0
  },
  "View Blog Post" : {
    "transaction" : "View Blog Post",
    "sampleCount" : 50,
    "errorCount" : 0,
    "errorPct" : 0.0,
    "meanResTime" : 7103.860000000001,
    "minResTime" : 1288.0,
    "maxResTime" : 12075.0,
    "pct1ResTime" : 11278.7,
    "pct2ResTime" : 11906.449999999999,
    "pct3ResTime" : 12075.0,
    "throughput" : 3.7568562626793898,
    "receivedKBytesPerSec" : 63.837206025997446,
    "sentKBytesPerSec" : 0.8511627470132993
  },
  "Delete Post" : {
    "transaction" : "Delete Post",
    "sampleCount" : 50,
    "errorCount" : 48,
    "errorPct" : 96.0,
    "meanResTime" : 9060.300000000003,
    "minResTime" : 772.0,
    "maxResTime" : 11003.0,
    "pct1ResTime" : 10395.7,
    "pct2ResTime" : 10534.5,
    "pct3ResTime" : 11003.0,
    "throughput" : 2.450379808870375,
    "receivedKBytesPerSec" : 1.8860745681205586,
    "sentKBytesPerSec" : 0.9380360205831904
  },
  "Total" : {
    "transaction" : "Total",
    "sampleCount" : 200,
    "errorCount" : 48,
    "errorPct" : 24.0,
    "meanResTime" : 4041.114999999999,
    "minResTime" : 0.0,
    "maxResTime" : 12075.0,
    "pct1ResTime" : 10238.4,
    "pct2ResTime" : 10449.5,
    "pct3ResTime" : 12004.190000000002,
    "throughput" : 9.21574048474795,
    "receivedKBytesPerSec" : 49.46314711777716,
    "sentKBytesPerSec" : 1.4039604644733203
  }
}